0x7fff_ffff
0177_7777_7777
0b0111_1111_1111_1111
0x8000_0000
0200_0000_0000
0b1000_0000_0000
0xffff_ffff
0377_7777_7777
0b1111_1111
0xfff_ffffL
0b0111_1111L
07_7777L
0
2
0372
0xDada_Cafe
1996
0x00_FF__00_FF
0l
0777L
0x10000L
2_147_483_648L
0xC0B0L

//1e1f
//2.f

.3f

0f
3.14f
6.0221e+23f
1e1
2.
.3
0.0
3.14
1e-9d
1e137
2.

gfd

// //./,./,./,./lk;i;ygtlkgl.,kj.//.,./,\\\\

"\\\\u1234"